Puntos 4 y 5/ALL0008/F0008CH1.CSV

Record Length,2.500000e+03,,  -0.000031000000,   1.76000,
Sample Interval,2.000000e-08,,  -0.000030980000,   1.52000,
Trigger Point,1.550000000000e+03,,  -0.000030960000,   1.68000,
,,,  -0.000030940000,   1.36000,
,,,  -0.000030920000,   1.36000,
,,,  -0.000030900000,   1.36000,
Source,CH1,,  -0.000030880000,   1.20000,
Vertical Units,V,,  -0.000030860000,   1.12000,
Vertical Scale,2.000000e+00,,  -0.000030840000,   0.96000,
Vertical Offset,0.000000e+00,,  -0.000030820000,   1.04000,
Horizontal Units,s,,  -0.000030800000,   0.88000,
Horizontal Scale,5.000000e-06,,  -0.000030780000,   0.72000,
Pt Fmt,Y,,  -0.000030760000,   0.72000,
Yzero,0.000000e+00,,  -0.000030740000,   0.56000,
Probe Atten,1.000000e+01,,  -0.000030720000,   0.56000,
Model Number,TBS1102,,  -0.000030700000,   0.40000,
Serial Number,C011563,,  -0.000030680000,   0.40000,
Firmware Version,FV:v26.01,,  -0.000030660000,   0.32000,
,,,-00.000030640000,   0.16000,
,,,-00.000030620000,   0.08000,
,,,-00.000030600000,   0.00000,
,,,-00.000030580000,  -0.08000,
,,,-00.000030560000,  -0.24000,
,,,-00.000030540000,  -0.24000,
,,,-00.000030520000,  -0.32000,
,,,-00.000030500000,  -0.40000,
,,,-00.000030480000,  -0.56000,
,,,-00.000030460000,  -0.64000,
,,,-00.000030440000,  -0.64000,
,,,-00.000030420000,  -0.80000,
,,,-00.000030400000,  -0.88000,
,,,-00.000030380000,  -0.96000,
,,,-00.000030360000,  -1.12000,
,,,-00.000030340000,  -1.12000,
,,,-00.000030320000,  -1.28000,
,,,-00.000030300000,  -1.44000,
,,,-00.000030280000,  -1.44000,
,,,-00.000030260000,  -1.44000,
,,,-00.000030240000,  -1.60000,
,,,-00.000030220000,  -1.60000,
,,,-00.000030200000,  -1.76000,
,,,-00.000030180000,  -1.92000,
,,,-00.000030160000,  -1.84000,
,,,-00.000030140000,  -2.00000,
,,,-00.000030120000,  -2.08000,
,,,-00.000030100000,  -2.16000,
,,,-00.000030080000,  -2.16000,
,,,-00.000030060000,  -2.32000,
,,,-00.000030040000,  -2.40000,
,,,-00.000030020000,  -2.48000,
,,,-00.000030000000,  -2.48000,
,,,-00.000029980000,  -2.72000,
,,,-00.000029960000,  -2.72000,
,,,-00.000029940000,  -2.80000,
,,,-00.000029920000,  -2.88000,
,,,-00.000029900000,  -2.88000,
,,,-00.000029880000,  -2.96000,
,,,-00.000029860000,  -2.96000,
,,,-00.000029840000,  -3.12000,
,,,-00.000029820000,  -3.20000,
,,,-00.000029800000,  -3.20000,
,,,-00.000029780000,  -3.28000,
,,,-00.000029760000,  -3.36000,
,,,-00.000029740000,  -3.44000,
,,,-00.000029720000,  -3.44000,
,,,-00.000029700000,  -3.52000,
,,,-00.000029680000,  -3.52000,
,,,-00.000029660000,  -3.60000,
,,,-00.000029640000,  -3.68000,
,,,-00.000029620000,  -3.76000,
,,,-00.000029600000,  -3.76000,
,,,-00.000029580000,  -3.84000,
,,,-00.000029560000,  -3.84000,
,,,-00.000029540000,  -3.92000,
,,,-00.000029520000,  -4.08000,
,,,-00.000029500000,  -4.00000,
,,,-00.000029480000,  -4.08000,
,,,-00.000029460000,  -4.24000,
,,,-00.000029440000,  -4.08000,
,,,-00.000029420000,  -4.24000,
,,,-00.000029400000,  -4.24000,
,,,-00.000029380000,  -4.24000,
,,,-00.000029360000,  -4.32000,
,,,-00.000029340000,  -4.40000,
,,,-00.000029320000,  -4.48000,
,,,-00.000029300000,  -4.40000,
,,,-00.000029280000,  -4.40000,
,,,-00.000029260000,  -4.48000,
,,,-00.000029240000,  -4.56000,
,,,-00.000029220000,  -4.56000,
,,,-00.000029200000,  -4.56000,
,,,-00.000029180000,  -4.56000,
,,,-00.000029160000,  -4.56000,
,,,-00.000029140000,  -4.64000,
,,,-00.000029120000,  -4.56000,
,,,-00.000029100000,  -4.56000,
,,,-00.000029080000,  -4.56000,
,,,-00.000029060000,  -4.72000,
,,,-00.000029040000,  -4.64000,
,,,-00.000029020000,  -4.64000,
,,,-00.000029000000,  -4.72000,
,,,-00.000028980000,  -4.64000,
,,,-00.000028960000,  -4.80000,
,,,-00.000028940000,  -4.72000,
,,,-00.000028920000,  -4.64000,
,,,-00.000028900000,  -4.64000,
,,,-00.000028880000,  -4.72000,
,,,-00.000028860000,  -4.72000,
,,,-00.000028840000,  -4.72000,
,,,-00.000028820000,  -4.64000,
,,,-00.000028800000,  -4.72000,
,,,-00.000028780000,  -4.56000,
,,,-00.000028760000,  -4.56000,
,,,-00.000028740000,  -4.72000,
,,,-00.000028720000,  -4.56000,
,,,-00.000028700000,  -4.56000,
,,,-00.000028680000,  -4.56000,
,,,-00.000028660000,  -4.64000,
,,,-00.000028640000,  -4.56000,
,,,-00.000028620000,  -4.48000,
,,,-00.000028600000,  -4.40000,
,,,-00.000028580000,  -4.48000,
,,,-00.000028560000,  -4.40000,
,,,-00.000028540000,  -4.40000,
,,,-00.000028520000,  -4.40000,
,,,-00.000028500000,  -4.32000,
,,,-00.000028480000,  -4.24000,
,,,-00.000028460000,  -4.24000,
,,,-00.000028440000,  -4.24000,
,,,-00.000028420000,  -4.16000,
,,,-00.000028400000,  -4.16000,
,,,-00.000028380000,  -4.08000,
,,,-00.000028360000,  -4.00000,
,,,-00.000028340000,  -3.92000,
,,,-00.000028320000,  -3.92000,
,,,-00.000028300000,  -3.92000,
,,,-00.000028280000,  -3.92000,
,,,-00.000028260000,  -3.84000,
,,,-00.000028240000,  -3.76000,
,,,-00.000028220000,  -3.76000,
,,,-00.000028200000,  -3.60000,
,,,-00.000028180000,  -3.68000,
,,,-00.000028160000,  -3.52000,
,,,-00.000028140000,  -3.44000,
,,,-00.000028120000,  -3.36000,
,,,-00.000028100000,  -3.44000,
,,,-00.000028080000,  -3.36000,
,,,-00.000028060000,  -3.28000,
,,,-00.000028040000,  -3.20000,
,,,-00.000028020000,  -3.04000,
,,,-00.000028000000,  -3.12000,
,,,-00.000027980000,  -2.96000,
,,,-00.000027960000,  -2.88000,
,,,-00.000027940000,  -2.88000,
,,,-00.000027920000,  -2.80000,
,,,-00.000027900000,  -2.72000,
,,,-00.000027880000,  -2.64000,
,,,-00.000027860000,  -2.56000,
,,,-00.000027840000,  -2.48000,
,,,-00.000027820000,  -2.40000,
,,,-00.000027800000,  -2.40000,
,,,-00.000027780000,  -2.16000,
,,,-00.000027760000,  -2.16000,
,,,-00.000027740000,  -2.08000,
,,,-00.000027720000,  -2.00000,
,,,-00.000027700000,  -1.92000,
,,,-00.000027680000,  -1.76000,
,,,-00.000027660000,  -1.84000,
,,,-00.000027640000,  -1.68000,
,,,-00.000027620000,  -1.60000,
,,,-00.000027600000,  -1.52000,
,,,-00.000027580000,  -1.44000,
,,,-00.000027560000,  -1.36000,
,,,-00.000027540000,  -1.28000,
,,,-00.000027520000,  -1.20000,
,,,-00.000027500000,  -1.12000,
,,,-00.000027480000,  -1.04000,
,,,-00.000027460000,  -0.88000,
,,,-00.000027440000,  -0.88000,
,,,-00.000027420000,  -0.80000,
,,,-00.000027400000,  -0.64000,
,,,-00.000027380000,  -0.56000,
,,,-00.000027360000,  -0.48000,
,,,-00.000027340000,  -0.32000,
,,,-00.000027320000,  -0.24000,
,,,-00.000027300000,  -0.24000,
,,,-00.000027280000,  -0.08000,
,,,-00.000027260000,  -0.08000,
,,,-00.000027240000,   0.08000,
,,,-00.000027220000,   0.16000,
,,,-00.000027200000,   0.16000,
,,,-00.000027180000,   0.24000,
,,,-00.000027160000,   0.40000,
,,,-00.000027140000,   0.56000,
,,,-00.000027120000,   0.56000,
,,,-00.000027100000,   0.72000,
,,,-00.000027080000,   0.72000,
,,,-00.000027060000,   0.88000,
,,,-00.000027040000,   0.96000,
,,,-00.000027020000,   0.96000,
,,,-00.000027000000,   1.12000,
,,,-00.000026980000,   1.12000,
,,,-00.000026960000,   1.28000,
,,,-00.000026940000,   1.36000,
,,,-00.000026920000,   1.44000,
,,,-00.000026900000,   1.60000,
,,,-00.000026880000,   1.52000,
,,,-00.000026860000,   1.68000,
,,,-00.000026840000,   1.76000,
,,,-00.000026820000,   1.92000,
,,,-00.000026800000,   1.92000,
,,,-00.000026780000,   2.08000,
,,,-00.000026760000,   2.16000,
,,,-00.000026740000,   2.24000,
,,,-00.000026720000,   2.24000,
,,,-00.000026700000,   2.40000,
,,,-00.000026680000,   2.40000,
,,,-00.000026660000,   2.56000,
,,,-00.000026640000,   2.56000,
,,,-00.000026620000,   2.64000,
,,,-00.000026600000,   2.80000,
,,,-00.000026580000,   2.88000,
,,,-00.000026560000,   2.88000,
,,,-00.000026540000,   2.96000,
,,,-00.000026520000,   3.04000,
,,,-00.000026500000,   3.20000,
,,,-00.000026480000,   3.20000,
,,,-00.000026460000,   3.28000,
,,,-00.000026440000,   3.36000,
,,,-00.000026420000,   3.44000,
,,,-00.000026400000,   3.52000,
,,,-00.000026380000,   3.52000,
,,,-00.000026360000,   3.60000,
,,,-00.000026340000,   3.68000,
,,,-00.000026320000,   3.76000,
,,,-00.000026300000,   3.84000,
,,,-00.000026280000,   3.76000,
,,,-00.000026260000,   3.92000,
,,,-00.000026240000,   3.92000,
,,,-00.000026220000,   4.08000,
,,,-00.000026200000,   4.16000,
,,,-00.000026180000,   4.00000,
,,,-00.000026160000,   4.16000,
,,,-00.000026140000,   4.24000,
,,,-00.000026120000,   4.24000,
,,,-00.000026100000,   4.24000,
,,,-00.000026080000,   4.40000,
,,,-00.000026060000,   4.32000,
,,,-00.000026040000,   4.40000,
,,,-00.000026020000,   4.48000,
,,,-00.000026000000,   4.56000,
,,,-00.000025980000,   4.56000,
,,,-00.000025960000,   4.56000,
,,,-00.000025940000,   4.56000,
,,,-00.000025920000,   4.64000,
,,,-00.000025900000,   4.64000,
,,,-00.000025880000,   4.64000,
,,,-00.000025860000,   4.72000,
,,,-00.000025840000,   4.80000,
,,,-00.000025820000,   4.80000,
,,,-00.000025800000,   4.80000,
,,,-00.000025780000,   4.80000,
,,,-00.000025760000,   4.88000,
,,,-00.000025740000,   4.88000,
,,,-00.000025720000,   4.88000,
,,,-00.000025700000,   4.88000,
,,,-00.000025680000,   4.96000,
,,,-00.000025660000,   4.80000,
,,,-00.000025640000,   4.96000,
,,,-00.000025620000,   4.88000,
,,,-00.000025600000,   4.88000,
,,,-00.000025580000,   4.96000,
,,,-00.000025560000,   4.80000,
,,,-00.000025540000,   4.96000,
,,,-00.000025520000,   4.96000,
,,,-00.000025500000,   4.96000,
,,,-00.000025480000,   4.96000,
,,,-00.000025460000,   4.88000,
,,,-00.000025440000,   4.96000,
,,,-00.000025420000,   4.88000,
,,,-00.000025400000,   4.96000,
,,,-00.000025380000,   4.88000,
,,,-00.000025360000,   5.04000,
,,,-00.000025340000,   4.88000,
,,,-00.000025320000,   4.80000,
,,,-00.000025300000,   4.88000,
,,,-00.000025280000,   4.80000,
,,,-00.000025260000,   4.80000,
,,,-00.000025240000,   4.72000,
,,,-00.000025220000,   4.80000,
,,,-00.000025200000,   4.72000,
,,,-00.000025180000,   4.64000,
,,,-00.000025160000,   4.72000,
,,,-00.000025140000,   4.56000,
,,,-00.000025120000,   4.64000,
,,,-00.000025100000,   4.48000,
,,,-00.000025080000,   4.56000,
,,,-00.000025060000,   4.48000,
,,,-00.000025040000,   4.40000,
,,,-00.000025020000,   4.48000,
,,,-00.000025000000,   4.24000,
,,,-00.000024980000,   4.32000,
,,,-00.000024960000,   4.24000,
,,,-00.000024940000,   4.32000,
,,,-00.000024920000,   4.32000,
,,,-00.000024900000,   4.08000,
,,,-00.000024880000,   4.16000,
,,,-00.000024860000,   4.08000,
,,,-00.000024840000,   4.00000,
,,,-00.000024820000,   3.92000,
,,,-00.000024800000,   3.84000,
,,,-00.000024780000,   3.92000,
,,,-00.000024760000,   3.76000,
,,,-00.000024740000,   3.68000,
,,,-00.000024720000,   3.60000,
,,,-00.000024700000,   3.60000,
,,,-00.000024680000,   3.60000,
,,,-00.000024660000,   3.36000,
,,,-00.000024640000,   3.44000,
,,,-00.000024620000,   3.28000,
,,,-00.000024600000,   3.28000,
,,,-00.000024580000,   3.20000,
,,,-00.000024560000,   3.20000,
,,,-00.000024540000,   3.04000,
,,,-00.000024520000,   3.04000,
,,,-00.000024500000,   2.88000,
,,,-00.000024480000,   2.80000,
,,,-00.000024460000,   2.88000,
,,,-00.000024440000,   2.72000,
,,,-00.000024420000,   2.56000,
,,,-00.000024400000,   2.64000,
,,,-00.000024380000,   2.56000,
,,,-00.000024360000,   2.48000,
,,,-00.000024340000,   2.32000,
,,,-00.000024320000,   2.32000,
,,,-00.000024300000,   2.08000,
,,,-00.000024280000,   2.16000,
,,,-00.000024260000,   2.08000,
,,,-00.000024240000,   1.92000,
,,,-00.000024220000,   1.84000,
,,,-00.000024200000,   1.76000,
,,,-00.000024180000,   1.68000,
,,,-00.000024160000,   1.60000,
,,,-00.000024140000,   1.52000,
,,,-00.000024120000,   1.44000,
,,,-00.000024100000,   1.28000,
,,,-00.000024080000,   1.28000,
,,,-00.000024060000,   1.20000,
,,,-00.000024040000,   1.12000,
,,,-00.000024020000,   1.04000,
,,,-00.000024000000,   0.88000,
,,,-00.000023980000,   0.80000,
,,,-00.000023960000,   0.64000,
,,,-00.000023940000,   0.72000,
,,,-00.000023920000,   0.48000,
,,,-00.000023900000,   0.40000,
,,,-00.000023880000,   0.40000,
,,,-00.000023860000,   0.32000,
,,,-00.000023840000,   0.16000,
,,,-00.000023820000,   0.08000,
,,,-00.000023800000,  -0.08000,
,,,-00.000023780000,  -0.08000,
,,,-00.000023760000,  -0.24000,
,,,-00.000023740000,  -0.24000,
,,,-00.000023720000,  -0.32000,
,,,-00.000023700000,  -0.40000,
,,,-00.000023680000,  -0.56000,
,,,-00.000023660000,  -0.56000,
,,,-00.000023640000,  -0.72000,
,,,-00.000023620000,  -0.80000,
,,,-00.000023600000,  -0.88000,
,,,-00.000023580000,  -0.96000,
,,,-00.000023560000,  -1.12000,
,,,-00.000023540000,  -1.20000,
,,,-00.000023520000,  -1.28000,
,,,-00.000023500000,  -1.20000,
,,,-00.000023480000,  -1.44000,
,,,-00.000023460000,  -1.60000,
,,,-00.000023440000,  -1.52000,
,,,-00.000023420000,  -1.68000,
,,,-00.000023400000,  -1.68000,
,,,-00.000023380000,  -1.84000,
,,,-00.000023360000,  -1.92000,
,,,-00.000023340000,  -2.00000,
,,,-00.000023320000,  -2.08000,
,,,-00.000023300000,  -2.16000,
,,,-00.000023280000,  -2.24000,
,,,-00.000023260000,  -2.24000,
,,,-00.000023240000,  -2.40000,
,,,-00.000023220000,  -2.48000,
,,,-00.000023200000,  -2.48000,
,,,-00.000023180000,  -2.56000,
,,,-00.000023160000,  -2.64000,
,,,-00.000023140000,  -2.72000,
,,,-00.000023120000,  -2.72000,
,,,-00.000023100000,  -3.04000,
,,,-00.000023080000,  -2.96000,
,,,-00.000023060000,  -2.96000,
,,,-00.000023040000,  -3.04000,
,,,-00.000023020000,  -3.20000,
,,,-00.000023000000,  -3.20000,
,,,-00.000022980000,  -3.28000,
,,,-00.000022960000,  -3.28000,
,,,-00.000022940000,  -3.44000,
,,,-00.000022920000,  -3.60000,
,,,-00.000022900000,  -3.52000,
,,,-00.000022880000,  -3.52000,
,,,-00.000022860000,  -3.60000,
,,,-00.000022840000,  -3.68000,
,,,-00.000022820000,  -3.68000,
,,,-00.000022800000,  -3.76000,
,,,-00.000022780000,  -3.76000,
,,,-00.000022760000,  -3.84000,
,,,-00.000022740000,  -4.00000,
,,,-00.000022720000,  -4.00000,
,,,-00.000022700000,  -4.00000,
,,,-00.000022680000,  -4.08000,
,,,-00.000022660000,  -4.24000,
,,,-00.000022640000,  -4.24000,
,,,-00.000022620000,  -4.16000,
,,,-00.000022600000,  -4.32000,
,,,-00.000022580000,  -4.24000,
,,,-00.000022560000,  -4.24000,
,,,-00.000022540000,  -4.40000,
,,,-00.000022520000,  -4.40000,
,,,-00.000022500000,  -4.40000,
,,,-00.000022480000,  -4.48000,
,,,-00.000022460000,  -4.48000,
,,,-00.000022440000,  -4.56000,
,,,-00.000022420000,  -4.48000,
,,,-00.000022400000,  -4.48000,
,,,-00.000022380000,  -4.56000,
,,,-00.000022360000,  -4.56000,
,,,-00.000022340000,  -4.64000,
,,,-00.000022320000,  -4.64000,
,,,-00.000022300000,  -4.56000,
,,,-00.000022280000,  -4.64000,
,,,-00.000022260000,  -4.64000,
,,,-00.000022240000,  -4.64000,
,,,-00.000022220000,  -4.64000,
,,,-00.000022200000,  -4.80000,
,,,-00.000022180000,  -4.64000,
,,,-00.000022160000,  -4.64000,
,,,-00.000022140000,  -4.72000,
,,,-00.000022120000,  -4.72000,
,,,-00.000022100000,  -4.72000,
,,,-00.000022080000,  -4.72000,
,,,-00.000022060000,  -4.72000,
,,,-00.000022040000,  -4.72000,
,,,-00.000022020000,  -4.72000,
,,,-00.000022000000,  -4.72000,
,,,-00.000021980000,  -4.80000,
,,,-00.000021960000,  -4.64000,
,,,-00.000021940000,  -4.72000,
,,,-00.000021920000,  -4.72000,
,,,-00.000021900000,  -4.56000,
,,,-00.000021880000,  -4.56000,
,,,-00.000021860000,  -4.56000,
,,,-00.000021840000,  -4.48000,
,,,-00.000021820000,  -4.56000,
,,,-00.000021800000,  -4.40000,
,,,-00.000021780000,  -4.40000,
,,,-00.000021760000,  -4.40000,
,,,-00.000021740000,  -4.32000,
,,,-00.000021720000,  -4.32000,
,,,-00.000021700000,  -4.40000,
,,,-00.000021680000,  -4.24000,
,,,-00.000021660000,  -4.24000,
,,,-00.000021640000,  -4.24000,
,,,-00.000021620000,  -4.24000,
,,,-00.000021600000,  -4.24000,
,,,-00.000021580000,  -4.24000,
,,,-00.000021560000,  -4.00000,
,,,-00.000021540000,  -4.08000,
,,,-00.000021520000,  -3.92000,
,,,-00.000021500000,  -3.92000,
,,,-00.000021480000,  -3.92000,
,,,-00.000021460000,  -3.84000,
,,,-00.000021440000,  -3.76000,
,,,-00.000021420000,  -3.68000,
,,,-00.000021400000,  -3.68000,
,,,-00.000021380000,  -3.60000,
,,,-00.000021360000,  -3.60000,
,,,-00.000021340000,  -3.52000,
,,,-00.000021320000,  -3.44000,
,,,-00.000021300000,  -3.36000,
,,,-00.000021280000,  -3.36000,
,,,-00.000021260000,  -3.28000,
,,,-00.000021240000,  -3.20000,
,,,-00.000021220000,  -3.12000,
,,,-00.000021200000,  -3.12000,
,,,-00.000021180000,  -2.88000,
,,,-00.000021160000,  -2.88000,
,,,-00.000021140000,  -2.72000,
,,,-00.000021120000,  -2.72000,
,,,-00.000021100000,  -2.72000,
,,,-00.000021080000,  -2.64000,
,,,-00.000021060000,  -2.56000,
,,,-00.000021040000,  -2.48000,
,,,-00.000021020000,  -2.40000,
,,,-00.000021000000,  -2.32000,
,,,-00.000020980000,  -2.24000,
,,,-00.000020960000,  -2.16000,
,,,-00.000020940000,  -2.16000,
,,,-00.000020920000,  -2.00000,
,,,-00.000020900000,  -2.00000,
,,,-00.000020880000,  -1.84000,
,,,-00.000020860000,  -1.76000,
,,,-00.000020840000,  -1.68000,
,,,-00.000020820000,  -1.60000,
,,,-00.000020800000,  -1.52000,
,,,-00.000020780000,  -1.44000,
,,,-00.000020760000,  -1.36000,
,,,-00.000020740000,  -1.28000,
,,,-00.000020720000,  -1.04000,
,,,-00.000020700000,  -1.12000,
,,,-00.000020680000,  -0.96000,
,,,-00.000020660000,  -0.96000,
,,,-00.000020640000,  -0.88000,
,,,-00.000020620000,  -0.64000,
,,,-00.000020600000,  -0.64000,
,,,-00.000020580000,  -0.56000,
,,,-00.000020560000,  -0.48000,
,,,-00.000020540000,  -0.40000,
,,,-00.000020520000,  -0.24000,
,,,-00.000020500000,  -0.24000,
,,,-00.000020480000,  -0.08000,
,,,-00.000020460000,  -0.08000,
,,,-00.000020440000,   0.08000,
,,,-00.000020420000,   0.08000,
,,,-00.000020400000,   0.24000,
,,,-00.000020380000,   0.32000,
,,,-00.000020360000,   0.40000,
,,,-00.000020340000,   0.48000,
,,,-00.000020320000,   0.64000,
,,,-00.000020300000,   0.64000,
,,,-00.000020280000,   0.80000,
,,,-00.000020260000,   0.88000,
,,,-00.000020240000,   1.04000,
,,,-00.000020220000,   1.04000,
,,,-00.000020200000,   1.12000,
,,,-00.000020180000,   1.12000,
,,,-00.000020160000,   1.36000,
,,,-00.000020140000,   1.36000,
,,,-00.000020120000,   1.44000,
,,,-00.000020100000,   1.52000,
,,,-00.000020080000,   1.60000,
,,,-00.000020060000,   1.76000,
,,,-00.000020040000,   1.76000,
,,,-00.000020020000,   1.92000,
,,,-00.000020000000,   1.92000,
,,,-00.000019980000,   2.00000,
,,,-00.000019960000,   2.16000,
,,,-00.000019940000,   2.24000,
,,,-00.000019920000,   2.32000,
,,,-00.000019900000,   2.32000,
,,,-00.000019880000,   2.48000,
,,,-00.000019860000,   2.48000,
,,,-00.000019840000,   2.64000,
,,,-00.000019820000,   2.72000,
,,,-00.000019800000,   2.80000,
,,,-00.000019780000,   2.80000,
,,,-00.000019760000,   2.88000,
,,,-00.000019740000,   2.96000,
,,,-00.000019720000,   2.96000,
,,,-00.000019700000,   3.12000,
,,,-00.000019680000,   3.28000,
,,,-00.000019660000,   3.20000,
,,,-00.000019640000,   3.36000,
,,,-00.000019620000,   3.28000,
,,,-00.000019600000,   3.52000,
,,,-00.000019580000,   3.44000,
,,,-00.000019560000,   3.60000,
,,,-00.000019540000,   3.60000,
,,,-00.000019520000,   3.76000,
,,,-00.000019500000,   3.76000,
,,,-00.000019480000,   3.84000,
,,,-00.000019460000,   3.92000,
,,,-00.000019440000,   3.92000,
,,,-00.000019420000,   4.08000,
,,,-00.000019400000,   4.08000,
,,,-00.000019380000,   4.16000,
,,,-00.000019360000,   4.16000,
,,,-00.000019340000,   4.16000,
,,,-00.000019320000,   4.24000,
,,,-00.000019300000,   4.32000,
,,,-00.000019280000,   4.40000,
,,,-00.000019260000,   4.32000,
,,,-00.000019240000,   4.40000,
,,,-00.000019220000,   4.48000,
,,,-00.000019200000,   4.48000,
,,,-00.000019180000,   4.56000,
,,,-00.000019160000,   4.48000,
,,,-00.000019140000,   4.56000,
,,,-00.000019120000,   4.64000,
,,,-00.000019100000,   4.56000,
,,,-00.000019080000,   4.72000,
,,,-00.000019060000,   4.64000,
,,,-00.000019040000,   4.80000,
,,,-00.000019020000,   4.80000,
,,,-00.000019000000,   4.72000,
,,,-00.000018980000,   4.80000,
,,,-00.000018960000,   4.80000,
,,,-00.000018940000,   4.88000,
,,,-00.000018920000,   4.80000,
,,,-00.000018900000,   4.88000,
,,,-00.000018880000,   4.80000,
,,,-00.000018860000,   4.88000,
,,,-00.000018840000,   5.04000,
,,,-00.000018820000,   4.88000,
,,,-00.000018800000,   4.96000,
,,,-00.000018780000,   4.88000,
,,,-00.000018760000,   4.96000,
,,,-00.000018740000,   5.04000,
