Puntos 4 y 5/ALL0006/F0006CH2.CSV

Record Length,2.500000e+03,,  -0.000056000000,   1.20000,
Sample Interval,4.000000e-08,,  -0.000055960000,   1.28000,
Trigger Point,1.400000000000e+03,,  -0.000055920000,   1.20000,
,,,  -0.000055880000,   1.20000,
,,,  -0.000055840000,   1.12000,
,,,  -0.000055800000,   1.28000,
Source,CH2,,  -0.000055760000,   1.28000,
Vertical Units,V,,  -0.000055720000,   1.20000,
Vertical Scale,2.000000e+00,,  -0.000055680000,   1.28000,
Vertical Offset,0.000000e+00,,  -0.000055640000,   1.28000,
Horizontal Units,s,,  -0.000055600000,   1.28000,
Horizontal Scale,1.000000e-05,,  -0.000055560000,   1.28000,
Pt Fmt,Y,,  -0.000055520000,   1.28000,
Yzero,0.000000e+00,,  -0.000055480000,   1.28000,
Probe Atten,1.000000e+01,,  -0.000055440000,   1.28000,
Model Number,TBS1102,,  -0.000055400000,   1.28000,
Serial Number,C011563,,  -0.000055360000,   1.36000,
Firmware Version,FV:v26.01,,  -0.000055320000,   1.36000,
,,,-00.000055280000,   1.36000,
,,,-00.000055240000,   1.28000,
,,,-00.000055200000,   1.36000,
,,,-00.000055160000,   1.28000,
,,,-00.000055120000,   1.28000,
,,,-00.000055080000,   1.36000,
,,,-00.000055040000,   1.36000,
,,,-00.000055000000,   1.44000,
,,,-00.000054960000,   1.44000,
,,,-00.000054920000,   1.36000,
,,,-00.000054880000,   1.44000,
,,,-00.000054840000,   1.44000,
,,,-00.000054800000,   1.44000,
,,,-00.000054760000,   1.44000,
,,,-00.000054720000,   1.60000,
,,,-00.000054680000,   1.44000,
,,,-00.000054640000,   1.52000,
,,,-00.000054600000,   1.44000,
,,,-00.000054560000,   1.44000,
,,,-00.000054520000,   1.52000,
,,,-00.000054480000,   1.52000,
,,,-00.000054440000,   1.52000,
,,,-00.000054400000,   1.52000,
,,,-00.000054360000,   1.52000,
,,,-00.000054320000,   1.52000,
,,,-00.000054280000,   1.60000,
,,,-00.000054240000,   1.60000,
,,,-00.000054200000,   1.60000,
,,,-00.000054160000,   1.60000,
,,,-00.000054120000,   1.52000,
,,,-00.000054080000,   1.52000,
,,,-00.000054040000,   1.60000,
,,,-00.000054000000,   1.68000,
,,,-00.000053960000,   1.60000,
,,,-00.000053920000,   1.60000,
,,,-00.000053880000,   1.68000,
,,,-00.000053840000,   1.68000,
,,,-00.000053800000,   1.60000,
,,,-00.000053760000,   1.60000,
,,,-00.000053720000,   1.68000,
,,,-00.000053680000,   1.76000,
,,,-00.000053640000,   1.68000,
,,,-00.000053600000,   1.68000,
,,,-00.000053560000,   1.76000,
,,,-00.000053520000,   1.76000,
,,,-00.000053480000,   1.76000,
,,,-00.000053440000,   1.68000,
,,,-00.000053400000,   1.76000,
,,,-00.000053360000,   1.76000,
,,,-00.000053320000,   1.68000,
,,,-00.000053280000,   1.76000,
,,,-00.000053240000,   1.68000,
,,,-00.000053200000,   1.76000,
,,,-00.000053160000,   1.68000,
,,,-00.000053120000,   1.76000,
,,,-00.000053080000,   1.76000,
,,,-00.000053040000,   1.76000,
,,,-00.000053000000,   1.76000,
,,,-00.000052960000,   1.76000,
,,,-00.000052920000,   1.84000,
,,,-00.000052880000,   1.76000,
,,,-00.000052840000,   1.84000,
,,,-00.000052800000,   1.84000,
,,,-00.000052760000,   1.84000,
,,,-00.000052720000,   1.92000,
,,,-00.000052680000,   1.84000,
,,,-00.000052640000,   1.92000,
,,,-00.000052600000,   1.84000,
,,,-00.000052560000,   1.92000,
,,,-00.000052520000,   1.84000,
,,,-00.000052480000,   1.84000,
,,,-00.000052440000,   1.84000,
,,,-00.000052400000,   1.92000,
,,,-00.000052360000,   1.92000,
,,,-00.000052320000,   1.84000,
,,,-00.000052280000,   1.92000,
,,,-00.000052240000,   1.92000,
,,,-00.000052200000,   2.00000,
,,,-00.000052160000,   1.92000,
,,,-00.000052120000,   2.00000,
,,,-00.000052080000,   2.00000,
,,,-00.000052040000,   2.00000,
,,,-00.000052000000,   2.00000,
,,,-00.000051960000,   2.00000,
,,,-00.000051920000,   2.00000,
,,,-00.000051880000,   2.00000,
,,,-00.000051840000,   2.00000,
,,,-00.000051800000,   2.08000,
,,,-00.000051760000,   2.08000,
,,,-00.000051720000,   2.00000,
,,,-00.000051680000,   1.92000,
,,,-00.000051640000,   2.00000,
,,,-00.000051600000,   2.08000,
,,,-00.000051560000,   2.16000,
,,,-00.000051520000,   2.00000,
,,,-00.000051480000,   2.16000,
,,,-00.000051440000,   2.08000,
,,,-00.000051400000,   2.08000,
,,,-00.000051360000,   2.08000,
,,,-00.000051320000,   2.08000,
,,,-00.000051280000,   2.08000,
,,,-00.000051240000,   2.16000,
,,,-00.000051200000,   2.08000,
,,,-00.000051160000,   2.08000,
,,,-00.000051120000,   2.16000,
,,,-00.000051080000,   2.08000,
,,,-00.000051040000,   2.16000,
,,,-00.000051000000,   2.08000,
,,,-00.000050960000,   2.16000,
,,,-00.000050920000,   2.08000,
,,,-00.000050880000,   2.16000,
,,,-00.000050840000,   2.16000,
,,,-00.000050800000,   2.16000,
,,,-00.000050760000,   2.16000,
,,,-00.000050720000,   2.24000,
,,,-00.000050680000,   2.24000,
,,,-00.000050640000,   2.16000,
,,,-00.000050600000,   2.16000,
,,,-00.000050560000,   2.24000,
,,,-00.000050520000,   2.24000,
,,,-00.000050480000,   2.16000,
,,,-00.000050440000,   2.16000,
,,,-00.000050400000,   2.24000,
,,,-00.000050360000,   2.24000,
,,,-00.000050320000,   2.32000,
,,,-00.000050280000,   2.24000,
,,,-00.000050240000,   2.24000,
,,,-00.000050200000,   2.32000,
,,,-00.000050160000,   2.24000,
,,,-00.000050120000,   2.24000,
,,,-00.000050080000,   2.24000,
,,,-00.000050040000,   2.24000,
,,,-00.000050000000,   2.24000,
,,,-00.000049960000,   2.32000,
,,,-00.000049920000,   2.32000,
,,,-00.000049880000,   2.24000,
,,,-00.000049840000,   2.32000,
,,,-00.000049800000,   2.24000,
,,,-00.000049760000,   2.32000,
,,,-00.000049720000,   2.40000,
,,,-00.000049680000,   2.32000,
,,,-00.000049640000,   2.32000,
,,,-00.000049600000,   2.40000,
,,,-00.000049560000,   2.40000,
,,,-00.000049520000,   2.32000,
,,,-00.000049480000,   2.24000,
,,,-00.000049440000,   2.40000,
,,,-00.000049400000,   2.40000,
,,,-00.000049360000,   2.40000,
,,,-00.000049320000,   2.40000,
,,,-00.000049280000,   2.40000,
,,,-00.000049240000,   2.40000,
,,,-00.000049200000,   2.32000,
,,,-00.000049160000,   2.32000,
,,,-00.000049120000,   2.40000,
,,,-00.000049080000,   2.32000,
,,,-00.000049040000,   2.40000,
,,,-00.000049000000,   2.48000,
,,,-00.000048960000,   2.40000,
,,,-00.000048920000,   2.40000,
,,,-00.000048880000,   2.32000,
,,,-00.000048840000,   2.40000,
,,,-00.000048800000,   2.40000,
,,,-00.000048760000,   2.40000,
,,,-00.000048720000,   2.40000,
,,,-00.000048680000,   2.40000,
,,,-00.000048640000,   2.48000,
,,,-00.000048600000,   2.48000,
,,,-00.000048560000,   2.40000,
,,,-00.000048520000,   2.40000,
,,,-00.000048480000,   2.40000,
,,,-00.000048440000,   2.48000,
,,,-00.000048400000,   2.40000,
,,,-00.000048360000,   2.40000,
,,,-00.000048320000,   2.48000,
,,,-00.000048280000,   2.48000,
,,,-00.000048240000,   2.48000,
,,,-00.000048200000,   2.40000,
,,,-00.000048160000,   2.40000,
,,,-00.000048120000,   2.48000,
,,,-00.000048080000,   2.48000,
,,,-00.000048040000,   2.56000,
,,,-00.000048000000,   2.48000,
,,,-00.000047960000,   2.56000,
,,,-00.000047920000,   2.48000,
,,,-00.000047880000,   2.48000,
,,,-00.000047840000,   2.56000,
,,,-00.000047800000,   2.48000,
,,,-00.000047760000,   2.56000,
,,,-00.000047720000,   2.56000,
,,,-00.000047680000,   2.56000,
,,,-00.000047640000,   2.56000,
,,,-00.000047600000,   2.64000,
,,,-00.000047560000,   2.48000,
,,,-00.000047520000,   2.56000,
,,,-00.000047480000,   2.56000,
,,,-00.000047440000,   2.48000,
,,,-00.000047400000,   2.56000,
,,,-00.000047360000,   2.56000,
,,,-00.000047320000,   2.56000,
,,,-00.000047280000,   2.64000,
,,,-00.000047240000,   2.48000,
,,,-00.000047200000,   2.56000,
,,,-00.000047160000,   2.64000,
,,,-00.000047120000,   2.56000,
,,,-00.000047080000,   2.64000,
,,,-00.000047040000,   2.56000,
,,,-00.000047000000,   2.64000,
,,,-00.000046960000,   2.56000,
,,,-00.000046920000,   2.56000,
,,,-00.000046880000,   2.64000,
,,,-00.000046840000,   2.56000,
,,,-00.000046800000,   2.64000,
,,,-00.000046760000,   2.64000,
,,,-00.000046720000,   2.64000,
,,,-00.000046680000,   2.64000,
,,,-00.000046640000,   2.64000,
,,,-00.000046600000,   2.72000,
,,,-00.000046560000,   2.64000,
,,,-00.000046520000,   2.64000,
,,,-00.000046480000,   2.56000,
,,,-00.000046440000,   2.64000,
,,,-00.000046400000,   2.64000,
,,,-00.000046360000,   2.64000,
,,,-00.000046320000,   2.72000,
,,,-00.000046280000,   2.64000,
,,,-00.000046240000,   2.64000,
,,,-00.000046200000,   2.64000,
,,,-00.000046160000,   2.64000,
,,,-00.000046120000,   2.64000,
,,,-00.000046080000,   2.64000,
,,,-00.000046040000,   2.72000,
,,,-00.000046000000,   2.72000,
,,,-00.000045960000,   2.72000,
,,,-00.000045920000,   2.64000,
,,,-00.000045880000,   2.64000,
,,,-00.000045840000,   2.72000,
,,,-00.000045800000,   2.64000,
,,,-00.000045760000,   2.64000,
,,,-00.000045720000,   2.64000,
,,,-00.000045680000,   2.64000,
,,,-00.000045640000,   2.72000,
,,,-00.000045600000,   2.80000,
,,,-00.000045560000,   2.72000,
,,,-00.000045520000,   2.64000,
,,,-00.000045480000,   2.64000,
,,,-00.000045440000,   2.72000,
,,,-00.000045400000,   2.72000,
,,,-00.000045360000,   2.72000,
,,,-00.000045320000,   2.64000,
,,,-00.000045280000,   2.64000,
,,,-00.000045240000,   2.72000,
,,,-00.000045200000,   2.64000,
,,,-00.000045160000,   2.72000,
,,,-00.000045120000,   2.64000,
,,,-00.000045080000,   2.72000,
,,,-00.000045040000,   2.72000,
,,,-00.000045000000,   2.64000,
,,,-00.000044960000,   2.72000,
,,,-00.000044920000,   2.72000,
,,,-00.000044880000,   2.64000,
,,,-00.000044840000,   2.72000,
,,,-00.000044800000,   2.64000,
,,,-00.000044760000,   2.72000,
,,,-00.000044720000,   2.72000,
,,,-00.000044680000,   2.72000,
,,,-00.000044640000,   2.72000,
,,,-00.000044600000,   2.72000,
,,,-00.000044560000,   2.72000,
,,,-00.000044520000,   2.72000,
,,,-00.000044480000,   2.64000,
,,,-00.000044440000,   2.64000,
,,,-00.000044400000,   2.64000,
,,,-00.000044360000,   2.72000,
,,,-00.000044320000,   2.64000,
,,,-00.000044280000,   2.80000,
,,,-00.000044240000,   2.72000,
,,,-00.000044200000,   2.64000,
,,,-00.000044160000,   2.72000,
,,,-00.000044120000,   2.72000,
,,,-00.000044080000,   2.80000,
,,,-00.000044040000,   2.72000,
,,,-00.000044000000,   2.72000,
,,,-00.000043960000,   2.72000,
,,,-00.000043920000,   2.64000,
,,,-00.000043880000,   2.72000,
,,,-00.000043840000,   2.64000,
,,,-00.000043800000,   2.72000,
,,,-00.000043760000,   2.72000,
,,,-00.000043720000,   2.72000,
,,,-00.000043680000,   2.72000,
,,,-00.000043640000,   2.80000,
,,,-00.000043600000,   2.72000,
,,,-00.000043560000,   2.64000,
,,,-00.000043520000,   2.72000,
,,,-00.000043480000,   2.64000,
,,,-00.000043440000,   2.72000,
,,,-00.000043400000,   2.64000,
,,,-00.000043360000,   2.80000,
,,,-00.000043320000,   2.72000,
,,,-00.000043280000,   2.64000,
,,,-00.000043240000,   2.64000,
,,,-00.000043200000,   2.72000,
,,,-00.000043160000,   2.64000,
,,,-00.000043120000,   2.72000,
,,,-00.000043080000,   2.64000,
,,,-00.000043040000,   2.72000,
,,,-00.000043000000,   2.64000,
,,,-00.000042960000,   2.72000,
,,,-00.000042920000,   2.72000,
,,,-00.000042880000,   2.64000,
,,,-00.000042840000,   2.72000,
,,,-00.000042800000,   2.72000,
,,,-00.000042760000,   2.72000,
,,,-00.000042720000,   2.72000,
,,,-00.000042680000,   2.72000,
,,,-00.000042640000,   2.72000,
,,,-00.000042600000,   2.72000,
,,,-00.000042560000,   2.80000,
,,,-00.000042520000,   2.64000,
,,,-00.000042480000,   2.72000,
,,,-00.000042440000,   2.72000,
,,,-00.000042400000,   2.80000,
,,,-00.000042360000,   2.72000,
,,,-00.000042320000,   2.72000,
,,,-00.000042280000,   2.72000,
,,,-00.000042240000,   2.72000,
,,,-00.000042200000,   2.64000,
,,,-00.000042160000,   2.72000,
,,,-00.000042120000,   2.64000,
,,,-00.000042080000,   2.72000,
,,,-00.000042040000,   2.72000,
,,,-00.000042000000,   2.80000,
,,,-00.000041960000,   2.64000,
,,,-00.000041920000,   2.56000,
,,,-00.000041880000,   2.72000,
,,,-00.000041840000,   2.64000,
,,,-00.000041800000,   2.64000,
,,,-00.000041760000,   2.72000,
,,,-00.000041720000,   2.64000,
,,,-00.000041680000,   2.80000,
,,,-00.000041640000,   2.72000,
,,,-00.000041600000,   2.72000,
,,,-00.000041560000,   2.56000,
,,,-00.000041520000,   2.64000,
,,,-00.000041480000,   2.72000,
,,,-00.000041440000,   2.56000,
,,,-00.000041400000,   2.64000,
,,,-00.000041360000,   2.64000,
,,,-00.000041320000,   2.64000,
,,,-00.000041280000,   2.56000,
,,,-00.000041240000,   2.64000,
,,,-00.000041200000,   2.64000,
,,,-00.000041160000,   2.72000,
,,,-00.000041120000,   2.56000,
,,,-00.000041080000,   2.64000,
,,,-00.000041040000,   2.64000,
,,,-00.000041000000,   2.64000,
,,,-00.000040960000,   2.72000,
,,,-00.000040920000,   2.64000,
,,,-00.000040880000,   2.64000,
,,,-00.000040840000,   2.64000,
,,,-00.000040800000,   2.56000,
,,,-00.000040760000,   2.64000,
,,,-00.000040720000,   2.56000,
,,,-00.000040680000,   2.64000,
,,,-00.000040640000,   2.64000,
,,,-00.000040600000,   2.48000,
,,,-00.000040560000,   2.64000,
,,,-00.000040520000,   2.56000,
,,,-00.000040480000,   2.64000,
,,,-00.000040440000,   2.56000,
,,,-00.000040400000,   2.56000,
,,,-00.000040360000,   2.56000,
,,,-00.000040320000,   2.56000,
,,,-00.000040280000,   2.56000,
,,,-00.000040240000,   2.56000,
,,,-00.000040200000,   2.56000,
,,,-00.000040160000,   2.56000,
,,,-00.000040120000,   2.64000,
,,,-00.000040080000,   2.56000,
,,,-00.000040040000,   2.56000,
,,,-00.000040000000,   2.56000,
,,,-00.000039960000,   2.48000,
,,,-00.000039920000,   2.56000,
,,,-00.000039880000,   2.56000,
,,,-00.000039840000,   2.56000,
,,,-00.000039800000,   2.48000,
,,,-00.000039760000,   2.48000,
,,,-00.000039720000,   2.48000,
,,,-00.000039680000,   2.48000,
,,,-00.000039640000,   2.56000,
,,,-00.000039600000,   2.48000,
,,,-00.000039560000,   2.48000,
,,,-00.000039520000,   2.56000,
,,,-00.000039480000,   2.56000,
,,,-00.000039440000,   2.48000,
,,,-00.000039400000,   2.48000,
,,,-00.000039360000,   2.48000,
,,,-00.000039320000,   2.48000,
,,,-00.000039280000,   2.48000,
,,,-00.000039240000,   2.48000,
,,,-00.000039200000,   2.40000,
,,,-00.000039160000,   2.48000,
,,,-00.000039120000,   2.48000,
,,,-00.000039080000,   2.48000,
,,,-00.000039040000,   2.40000,
,,,-00.000039000000,   2.40000,
,,,-00.000038960000,   2.48000,
,,,-00.000038920000,   2.40000,
,,,-00.000038880000,   2.48000,
,,,-00.000038840000,   2.40000,
,,,-00.000038800000,   2.40000,
,,,-00.000038760000,   2.40000,
,,,-00.000038720000,   2.32000,
,,,-00.000038680000,   2.40000,
,,,-00.000038640000,   2.40000,
,,,-00.000038600000,   2.40000,
,,,-00.000038560000,   2.40000,
,,,-00.000038520000,   2.40000,
,,,-00.000038480000,   2.40000,
,,,-00.000038440000,   2.40000,
,,,-00.000038400000,   2.48000,
,,,-00.000038360000,   2.32000,
,,,-00.000038320000,   2.32000,
,,,-00.000038280000,   2.40000,
,,,-00.000038240000,   2.48000,
,,,-00.000038200000,   2.40000,
,,,-00.000038160000,   2.32000,
,,,-00.000038120000,   2.40000,
,,,-00.000038080000,   2.40000,
,,,-00.000038040000,   2.40000,
,,,-00.000038000000,   2.32000,
,,,-00.000037960000,   2.32000,
,,,-00.000037920000,   2.32000,
,,,-00.000037880000,   2.32000,
,,,-00.000037840000,   2.32000,
,,,-00.000037800000,   2.32000,
,,,-00.000037760000,   2.32000,
,,,-00.000037720000,   2.32000,
,,,-00.000037680000,   2.32000,
,,,-00.000037640000,   2.32000,
,,,-00.000037600000,   2.32000,
,,,-00.000037560000,   2.32000,
,,,-00.000037520000,   2.32000,
,,,-00.000037480000,   2.24000,
,,,-00.000037440000,   2.24000,
,,,-00.000037400000,   2.32000,
,,,-00.000037360000,   2.24000,
,,,-00.000037320000,   2.24000,
,,,-00.000037280000,   2.24000,
,,,-00.000037240000,   2.24000,
,,,-00.000037200000,   2.24000,
,,,-00.000037160000,   2.24000,
,,,-00.000037120000,   2.24000,
,,,-00.000037080000,   2.24000,
,,,-00.000037040000,   2.24000,
,,,-00.000037000000,   2.24000,
,,,-00.000036960000,   2.16000,
,,,-00.000036920000,   2.24000,
,,,-00.000036880000,   2.24000,
,,,-00.000036840000,   2.16000,
,,,-00.000036800000,   2.16000,
,,,-00.000036760000,   2.16000,
,,,-00.000036720000,   2.24000,
,,,-00.000036680000,   2.16000,
,,,-00.000036640000,   2.24000,
,,,-00.000036600000,   2.16000,
,,,-00.000036560000,   2.24000,
,,,-00.000036520000,   2.16000,
,,,-00.000036480000,   2.08000,
,,,-00.000036440000,   2.16000,
,,,-00.000036400000,   2.08000,
,,,-00.000036360000,   2.16000,
,,,-00.000036320000,   2.08000,
,,,-00.000036280000,   2.00000,
,,,-00.000036240000,   2.16000,
,,,-00.000036200000,   2.16000,
,,,-00.000036160000,   2.16000,
,,,-00.000036120000,   2.08000,
,,,-00.000036080000,   2.08000,
,,,-00.000036040000,   2.00000,
,,,-00.000036000000,   2.08000,
,,,-00.000035960000,   2.00000,
,,,-00.000035920000,   2.08000,
,,,-00.000035880000,   2.08000,
,,,-00.000035840000,   2.08000,
,,,-00.000035800000,   2.00000,
,,,-00.000035760000,   2.00000,
,,,-00.000035720000,   1.92000,
,,,-00.000035680000,   2.08000,
,,,-00.000035640000,   2.00000,
,,,-00.000035600000,   2.00000,
,,,-00.000035560000,   2.00000,
,,,-00.000035520000,   1.92000,
,,,-00.000035480000,   1.92000,
,,,-00.000035440000,   2.00000,
,,,-00.000035400000,   1.92000,
,,,-00.000035360000,   1.92000,
,,,-00.000035320000,   1.92000,
,,,-00.000035280000,   1.92000,
,,,-00.000035240000,   1.92000,
,,,-00.000035200000,   1.84000,
,,,-00.000035160000,   1.92000,
,,,-00.000035120000,   1.92000,
,,,-00.000035080000,   1.92000,
,,,-00.000035040000,   1.92000,
,,,-00.000035000000,   1.92000,
,,,-00.000034960000,   1.84000,
,,,-00.000034920000,   1.84000,
,,,-00.000034880000,   1.76000,
,,,-00.000034840000,   1.84000,
,,,-00.000034800000,   1.84000,
,,,-00.000034760000,   1.76000,
,,,-00.000034720000,   1.84000,
,,,-00.000034680000,   1.84000,
,,,-00.000034640000,   1.84000,
,,,-00.000034600000,   1.76000,
,,,-00.000034560000,   1.76000,
,,,-00.000034520000,   1.76000,
,,,-00.000034480000,   1.84000,
,,,-00.000034440000,   1.76000,
,,,-00.000034400000,   1.76000,
,,,-00.000034360000,   1.76000,
,,,-00.000034320000,   1.68000,
,,,-00.000034280000,   1.76000,
,,,-00.000034240000,   1.76000,
,,,-00.000034200000,   1.68000,
,,,-00.000034160000,   1.68000,
,,,-00.000034120000,   1.68000,
,,,-00.000034080000,   1.76000,
,,,-00.000034040000,   1.68000,
,,,-00.000034000000,   1.68000,
,,,-00.000033960000,   1.68000,
,,,-00.000033920000,   1.68000,
,,,-00.000033880000,   1.68000,
,,,-00.000033840000,   1.68000,
,,,-00.000033800000,   1.60000,
,,,-00.000033760000,   1.68000,
,,,-00.000033720000,   1.76000,
,,,-00.000033680000,   1.68000,
,,,-00.000033640000,   1.60000,
,,,-00.000033600000,   1.60000,
,,,-00.000033560000,   1.68000,
,,,-00.000033520000,   1.60000,
,,,-00.000033480000,   1.60000,
,,,-00.000033440000,   1.60000,
,,,-00.000033400000,   1.60000,
,,,-00.000033360000,   1.44000,
,,,-00.000033320000,   1.52000,
,,,-00.000033280000,   1.52000,
,,,-00.000033240000,   1.52000,
,,,-00.000033200000,   1.52000,
,,,-00.000033160000,   1.44000,
,,,-00.000033120000,   1.52000,
,,,-00.000033080000,   1.52000,
,,,-00.000033040000,   1.60000,
,,,-00.000033000000,   1.52000,
,,,-00.000032960000,   1.52000,
,,,-00.000032920000,   1.44000,
,,,-00.000032880000,   1.44000,
,,,-00.000032840000,   1.44000,
,,,-00.000032800000,   1.44000,
,,,-00.000032760000,   1.52000,
,,,-00.000032720000,   1.44000,
,,,-00.000032680000,   1.44000,
,,,-00.000032640000,   1.36000,
,,,-00.000032600000,   1.36000,
,,,-00.000032560000,   1.36000,
,,,-00.000032520000,   1.36000,
,,,-00.000032480000,   1.36000,
,,,-00.000032440000,   1.44000,
,,,-00.000032400000,   1.28000,
,,,-00.000032360000,   1.28000,
,,,-00.000032320000,   1.28000,
,,,-00.000032280000,   1.36000,
,,,-00.000032240000,   1.36000,
,,,-00.000032200000,   1.36000,
,,,-00.000032160000,   1.36000,
,,,-00.000032120000,   1.28000,
,,,-00.000032080000,   1.28000,
,,,-00.000032040000,   1.28000,
,,,-00.000032000000,   1.36000,
,,,-00.000031960000,   1.20000,
,,,-00.000031920000,   1.20000,
,,,-00.000031880000,   1.28000,
,,,-00.000031840000,   1.20000,
,,,-00.000031800000,   1.12000,
,,,-00.000031760000,   1.20000,
,,,-00.000031720000,   1.20000,
,,,-00.000031680000,   1.28000,
,,,-00.000031640000,   1.28000,
,,,-00.000031600000,   1.12000,
,,,-00.000031560000,   1.28000,
,,,-00.000031520000,   1.20000,
,,,-00.000031480000,   1.12000,
